{
  "project_info": {
    "project_number": "991404628579",
    "firebase_url": "https://test-flovat.firebaseio.com",
    "project_id": "test-flovat",
    "storage_bucket": "test-flovat.appspot.com"
  },
  "client": [
    {
      "client_info": {
        "mobilesdk_app_id": "1:991404628579:android:93b32a5e6bd059ce",
        "android_client_info": {
          "package_name": "com.Flovat.AdMobTest"
        }
      },
      "oauth_client": [
        {
          "client_id": "991404628579-5kpvcsjn43eggdoeemootd3qiuegd1a3.apps.googleusercontent.com",
          "client_type": 3
        }
      ],
      "api_key": [
        {
          "current_key": "AIzaSyAvbr0KmHtK0B4ZznDzrtDA3Q1gSVa-VWw"
        }
      ],
      "services": {
        "appinvite_service": {
          "other_platform_oauth_client": [
            {
              "client_id": "991404628579-5kpvcsjn43eggdoeemootd3qiuegd1a3.apps.googleusercontent.com",
              "client_type": 3
            },
            {
              "client_id": "991404628579-o77ifqaq7e81a7p08k6g7gq2mub83m78.apps.googleusercontent.com",
              "client_type": 2,
              "ios_info": {
                "bundle_id": "com.Flovat.AdMobTest"
              }
            }
          ]
        }
      }
    }
  ],
  "configuration_version": "1"
}